[
  {
    "description": "Switch naming from task to pipe. Add the pipe.yml descriptor.",
    "type": "minor"
  },
  {
    "description": "Add support for the DEBUG variable.",
    "type": "minor"
  }
]